module github.com/ranggaadi/gin-gonic-learn

go 1.14

require (
	github.com/gin-gonic/gin v1.6.3
	github.com/go-playground/validator/v10 v10.3.0 // indirect
	github.com/go-sql-driver/mysql v1.5.0
	github.com/golang/protobuf v1.4.2 // indirect
	github.com/joho/godotenv v1.3.0
	github.com/kr/pretty v0.1.0 // indirect
	github.com/modern-go/concurrent v0.0.0-20180306012644-bacd9c7ef1dd // indirect
	github.com/modern-go/reflect2 v1.0.1 // indirect
	golang.org/x/sys v0.0.0-20200523222454-059865788121 // indirect
	google.golang.org/protobuf v1.24.0 // indirect
	gopkg.in/check.v1 v1.0.0-20180628173108-788fd7840127 // indirect
	gopkg.in/yaml.v2 v2.3.0 // indirect
)
